{"data":[{"id":"67e37903372d6","title":null,"description":"","content":null,"type":"ShortPhoto","sticky":"1","slug":null,"source":null,"created_at":"2025-03-26 10:48:19","tag":[],"media":[{"media_path":"67e379033e643.png","media_caption":null,"media_type":"png"}]},{"id":"67d150cdef493","title":null,"description":"","content":null,"type":"ShortPhoto","sticky":"0","slug":null,"source":null,"created_at":"2025-03-12 04:15:57","tag":[],"media":[{"media_path":"67d150ce098f1.png","media_caption":"ninggalin jejak buat kenang2an kalo channelnya udah gede \ud83d\ude4f\ud83d\ude05","media_type":"png"}]},{"id":"67d928445b266","title":null,"description":"","content":null,"type":"ShortPhoto","sticky":"0","slug":null,"source":null,"created_at":"2025-02-28 03:01:08","tag":[],"media":[{"media_path":"67d928447249f.png","media_caption":"\ud83d\ude4f","media_type":"png"}]},{"id":"6793380d7d5c6","title":null,"description":null,"content":"{\"title\":\"Google Style Guides\",\"locale\":\"en_US\",\"description\":\"Style guides for Google-originated open-source projects\",\"url\":\"https:\\\/\\\/google.github.io\\\/styleguide\\\/\",\"site_name\":\"styleguide\",\"type\":\"website\",\"caption\":\"<p>FYI buat referensi. biar ngodingnya ga asal jadi \\ud83d\\ude01 <\\\/p>\"}","type":"URL","sticky":"0","slug":null,"source":null,"created_at":"2025-01-24 01:49:50","tag":[],"media":[]},{"id":"67904611b61b8","title":null,"description":null,"content":"{\"title\":\"Just Newbie (adefathudin) - Chess Profile\",\"url\":\"https:\\\/\\\/www.chess.com\\\/member\\\/adefathudin\",\"description\":\"Discover the online chess profile of Just Newbie (adefathudin) at Chess.com. See their chess rating, follow their best games, and challenge them to play a game.\",\"type\":\"website\",\"image\":\"https:\\\/\\\/www.chess.com\\\/share\\\/user\\\/adefathudin\",\"site_name\":\"Chess.com\",\"caption\":\"<p>Yok add ah yg mau battle catur sama newbie \\ud83d\\ude01<\\\/p>\\r\\n\\r\\n<p><\\\/p>\"}","type":"URL","sticky":"0","slug":null,"source":null,"created_at":"2025-01-22 08:12:52","tag":[],"media":[]},{"id":"6760ef2a17b3d","title":null,"description":"Iseng2 pentest di website BRI, udah dilaporin dari tahun lalu tapi ngga ditanggepin. hikksss \ud83d\ude22\r\n\r\n*) mungkin karena minor","content":"<p>Iseng2 pentest di website BRI, udah dilaporin dari tahun lalu tapi ngga ditanggepin. hikksss \ud83d\ude22<\/p>\r\n\r\n<p>*) mungkin karena minor<\/p>","type":"LongPost","sticky":"0","slug":null,"source":null,"created_at":"2024-12-17 10:25:30","tag":[],"media":[{"media_path":"6760ef2a40cb6.png","media_caption":null,"media_type":"png"},{"media_path":"6760ef2a476d4.png","media_caption":null,"media_type":"png"}]},{"id":"672e05b9108f7","title":null,"description":"","content":null,"type":"Document","sticky":"0","slug":null,"source":"https:\/\/www.linkedin.com\/posts\/alexander-f-young_7-alternatives-to-saying-sorry-to-sound-activity-7259533287889453057-TlYw?utm_source=share&utm_medium=member_android","created_at":"2024-11-08 07:36:09","tag":[],"media":[{"media_path":"672e05b91a1e3.pdf","media_caption":null,"media_type":"pdf"}]},{"id":"6711c5da8ec28","title":null,"description":"Sebenernya domain adefathudin.com ini cuman website personal aja sih. Isinya ga lebih dari sekedar coretan&sup2; yg ga terlalu penting dan berisi konten&sup2; r","content":"<p>Sebenernya domain adefathudin.com ini cuman website personal aja sih. Isinya ga lebih dari sekedar coretan&sup2; yg ga terlalu penting dan berisi konten&sup2; repost aja \ud83d\ude01. Visitornya juga, sepiiii.... Ditambah biaya renewal domainnya ya ga sebanding sama domain ccTLD seperti .my.id<\/p>\n<p>Bayangin aja.. biaya renewal 1 tahun domain .com, itu beda tipis sama beli domain baru my.id untuk waktu 9 tahun. wkwkwkw<\/p>\n<p>Jadi sekarang lagi galau aja nih, mendingan migrasi pake domain baru atau renewal aja. walaupun brand &amp; SEO dipertaruhkan.<\/p>","type":"LongPost","sticky":"0","slug":null,"source":null,"created_at":"2024-10-18 09:20:10","tag":[],"media":[{"media_path":"6711c5da97da3.png","media_caption":"Biaya register domain baru .my.id untuk 9 tahun","media_type":"png"},{"media_path":"6711c5daa6b47.png","media_caption":"biaya renewal untuk 1 tahun","media_type":"png"},{"media_path":"6711c5daa7b32.png","media_caption":"usia domain adefathudin.com","media_type":"png"}]},{"id":"67105e8bb52ff","title":null,"description":"58% quit their jobs due to toxic work culture.\r\n\r\n70% of employees feel micromanaged at work\r\n\r\n65% of workers report feeling burned out.\r\n\r\nPeople don&#39;t qu","content":"<p>58% quit their jobs due to toxic work culture.<\/p>\r\n\r\n<p>70% of employees feel micromanaged at work<\/p>\r\n\r\n<p>65% of workers report feeling burned out.<\/p>\r\n\r\n<p>People don&#39;t quit their jobs,<br \/>\r\nTheir quite toxic cultures.<\/p>","type":"Document","sticky":"0","slug":null,"source":"https:\/\/www.linkedin.com\/posts\/jgirdhar_people-dont-quit-their-jobs-activity-7249999741151772672-Mcnq?utm_source=share&utm_medium=member_android","created_at":"2024-10-17 07:47:07","tag":[],"media":[{"media_path":"67105e8bbf3c3.pdf","media_caption":null,"media_type":"pdf"}]},{"id":"6708d00d18841","title":null,"description":"","content":null,"type":"Document","sticky":"0","slug":null,"source":"Linkedin Post","created_at":"2024-10-11 14:13:17","tag":[{"tag_name":"ReactJS","tag_slug":"react-js"}],"media":[{"media_path":"6708d00d2154d.pdf","media_caption":null,"media_type":"pdf"}]},{"id":"670792352aabe","title":null,"description":"","content":null,"type":"Document","sticky":"0","slug":null,"source":"Linkedin Post","created_at":"2024-10-10 03:37:09","tag":[],"media":[{"media_path":"6707923534dd9.pdf","media_caption":null,"media_type":"pdf"}]}],"pagination":{"current_page":1,"last_page":4,"per_page":11,"total":38}}
